{
    "global": {
        "location": "Central India",
        "environment": "dev"
    },
    "common_tags": {
        "environment": "dev",
        "owner": "cloudutsuk",
        "project": "terraform_modules"
    },
    "resource_groups": {
        "aks-rg": {
            "name": "cloudutsuk-aks-rg",
            "location": "Central India",
            "prefix": "vs",
            "resource_tags": {
                "env": "dev",
                "project": "terraform-azure-resource_group",
                "owner": "cloudutsuk"
            },
            "deployment_tags": {
                "app": "terraform",
                "contact": "devops team"
            }
        },
        "vm-rg": {
            "name": "cloudutsuk-vm-rg",
            "location": "Central India",
            "resource_tags": {
                "env": "dev",
                "project": "terraform-azure-resource_group",
                "owner": "cloudutsuk"
            },
            "deployment_tags": {
                "app": "terraform",
                "contact": "devops team"
            }
        }
    }
}