{
    "$schema": "https://schema.management.azure.com/schemas/2019-04-01/deploymentTemplate.json#",
    "contentVersion": "1.0.0.0",
    "parameters": {
        "location":{
            "defaultValue": "$location",
            "type": "string"
        },
        "targetresourcelocation":{
            "defaultValue": "$targetresourcelocation",
            "type": "string"
        },
        
       
       
        "firewall_pip1_name": {
            "defaultValue": "$firewall_pip1_name",
            "type": "string"
        },
       
        
        "ActionGroup_ID": {
            "defaultValue": "/subscriptions/2233010f-e7cf-4cf7-80d1-429d098072c2/resourceGroups/aeu2-2c2-nh-ws-rg01/providers/microsoft.insights/actiongroups/aeu2-2c2-nh-ws-ag01",
            "type": "string"
        }
    },
    "variables": {
        
     
        "Firewall_pip_syn_count_name": "[concat(parameters('firewall_pip1_name'),'_pip_syn_count')]",
       
      
       
        "Firewall_pip_under_ddos_attack_or_not_name": "[concat(parameters('firewall_pip1_name'),'_pip_under_ddos_attack_or_not')]",
       
    },
    "resources": [
        
        {
            "type": "Microsoft.Insights/metricAlerts",
            "apiVersion": "2018-03-01",
            "name": "[variables('Firewall_pip_syn_count_name')]",
            "location": "[parameters('location')]",
            "properties": {
                "severity": 3,
                "enabled": true,
                "scopes": [
                    "[resourceId('Microsoft.Network/publicIPAddresses', parameters('firewall_pip1_name'))]"
                ],
                "evaluationFrequency": "PT5M",
                "windowSize": "PT5M",
                "criteria": {
                    "allOf": [
                        {
                            "alertSensitivity": "Medium",
                            "failingPeriods": {
                                "numberOfEvaluationPeriods": 4,
                                "minFailingPeriodsToAlert": 4
                            },
                            "name": "Metric1",
                            "metricNamespace": "Microsoft.Network/publicIPAddresses",
                            "metricName": "SynCount",
                            "operator": "GreaterOrLessThan",
                            "timeAggregation": "Average",
                            "criterionType": "DynamicThresholdCriterion"
                        }
                    ],
                    "odata.type": "Microsoft.Azure.Monitor.MultipleResourceMultipleMetricCriteria"
                },
                "autoMitigate": true,
                "targetResourceType": "Microsoft.Network/publicIPAddresses",
                "targetResourceRegion": "[parameters('targetresourcelocation')]",
                "actions": [
                    {
                        "actionGroupId": "[parameters('ActionGroup_ID')]",
                        "webHookProperties": {}
                    }
                ]
            }
        },
        {
            "type": "Microsoft.Insights/metricAlerts",
            "apiVersion": "2018-03-01",
            "name": "[variables('Firewall_pip_under_ddos_attack_or_not_name')]",
            "location": "[parameters('location')]",
            "properties": {
                "severity": 3,
                "enabled": true,
                "scopes": [
                    "[resourceId('Microsoft.Network/publicIPAddresses', parameters('firewall_pip1_name'))]"
                ],
                "evaluationFrequency": "PT5M",
                "windowSize": "PT5M",
                "criteria": {
                    "allOf": [
                        {
                            "alertSensitivity": "Medium",
                            "failingPeriods": {
                                "numberOfEvaluationPeriods": 4,
                                "minFailingPeriodsToAlert": 4
                            },
                            "name": "Metric1",
                            "metricNamespace": "Microsoft.Network/publicIPAddresses",
                            "metricName": "IfUnderDDoSAttack",
                            "operator": "GreaterOrLessThan",
                            "timeAggregation": "Maximum",
                            "criterionType": "DynamicThresholdCriterion"
                        }
                    ],
                    "odata.type": "Microsoft.Azure.Monitor.MultipleResourceMultipleMetricCriteria"
                },
                "autoMitigate": true,
                "targetResourceType": "Microsoft.Network/publicIPAddresses",
                "targetResourceRegion": "[parameters('targetresourcelocation')]",
                "actions": [
                    {
                        "actionGroupId": "[parameters('ActionGroup_ID')]",
                        "webHookProperties": {}
                    }
                ]
            }
        }
        
    ]
}